{
  "semved": [
    {
      "subj_id": 123456,
      "subject": "Основы забороремонтных технологий",
      "prepod": "Ющенко О.Г.",
      "kafedra": "Систем информации",
      "kabr": "СИ",
      "oc_short": 3,
      "oc_naz": "Задовільно",
      "oc_bol": 61,
      "oc_ects": "E",
      "credit": 4,
      "indzav": "КР",
      "control": "Е",
      "if_hvost": 0,
      "data": "01.01.2019"
    },
    {
      "subj_id": 123457,
      "subject": "Мерчандайзінг у хаузклінінгу",
      "prepod": "Ющенко О.Г.",
      "kafedra": "Систем информации",
      "kabr": "СИ",
      "oc_short": 3,
      "oc_naz": "Задовільно",
      "oc_bol": 61,
      "oc_ects": "E",
      "credit": 4,
      "indzav": "РГЗ",
      "control": "З",
      "if_hvost": 1,
      "data": "01.01.2019"
    }
  ]
}
